…
Use `modelr::crossv_mc`.

``` r
cv_df = 
  crossv_mc(nonlin_df, 100, test = .2) %>% #put 0.2 of the df in the test data frame===79 train and 21 test
  mutate(
    train = map(train, as_tibble),
    test = map(test, as_tibble)
  )

cv_df %>% pull(train) %>% .[[1]]#pull out the 1st data set
```

    ## # A tibble: 79 x 3
    ##       id      x       y
    ##    <int>  <dbl>   <dbl>
    ##  1     1 0.266   1.11  
    ##  2     2 0.372   0.764 
    ##  3     3 0.573   0.358 
    ##  4     4 0.908  -3.04  
    ##  5     6 0.898  -1.99  
    ##  6     7 0.945  -3.27  
    ##  7     8 0.661  -0.615 
    ##  8     9 0.629   0.0878
    ##  9    10 0.0618  0.392 
    ## 10    11 0.206   1.63  
    ## # ... with 69 more rows
…
